# Exported from Wings 3D 1.5.4
mtllib bronze_bow.mtl
o Cube1
#36 vertices, 64 faces
v -0.19725854 -1.85777149 -0.64504390
v -0.19725854 -1.85777149 -1.2910469e-2
v -0.19725854 1.85777149 -0.64504390
v -0.19725854 1.85777149 -1.2910469e-2
v 0.19725854 -1.85777149 -0.64504390
v 0.19725854 -1.85777149 -1.2910469e-2
v 0.19725854 1.85777149 -0.64504390
v 0.19725854 1.85777149 -1.2910469e-2
v -0.14794391 -3.42583511 -1.03573604
v -0.14794391 -3.42583511 -1.66786948
v 0.14794391 -3.42583511 -1.66786948
v 0.14794391 -3.42583511 -1.03573604
v -0.14794391 3.42583511 -1.66786948
v -0.14794391 3.42583511 -1.03573604
v 0.14794391 3.42583511 -1.03573604
v 0.14794391 3.42583511 -1.66786948
v -9.3500550e-2 -4.41528199 -2.53644953
v -9.3500550e-2 -4.41528199 -2.77828078
v 9.3500550e-2 -4.41528199 -2.77828078
v 9.3500550e-2 -4.41528199 -2.53644953
v -9.3500550e-2 4.41528199 -2.77828078
v -9.3500550e-2 4.41528199 -2.53644953
v 9.3500550e-2 4.41528199 -2.53644953
v 9.3500550e-2 4.41528199 -2.77828078
v -0.19725854 0.0000000e+0 -0.28024180
v -0.19725854 0.0000000e+0 0.35189164
v 0.19725854 0.0000000e+0 -0.28024180
v 0.19725854 0.0000000e+0 0.35189164
v -1.7164400e-2 -4.28023900 -2.62100959
v -1.7164400e-2 -4.28023900 -2.58668079
v -1.7164400e-2 4.28023900 -2.62100959
v -1.7164400e-2 4.28023900 -2.58668079
v 1.7164400e-2 -4.28023900 -2.62100959
v 1.7164400e-2 -4.28023900 -2.58668079
v 1.7164400e-2 4.28023900 -2.62100959
v 1.7164400e-2 4.28023900 -2.58668079
vt 0.0000000e+0 0.50000000
vt 4.1311303e-2 0.28962029
vt 4.1311303e-2 0.71037971
vt 7.1584718e-2 0.50000000
vt 0.11289602 0.28962029
vt 0.11289602 0.71037971
vt 0.15713919 0.11204798
vt 0.15713919 0.88795202
vt 0.22872391 0.11204798
vt 0.22872391 0.88795202
vt 0.32708456 0.0000000e+0
vt 0.32708456 1.00000000
vt 0.35447027 0.0000000e+0
vt 0.35447027 1.00000000
vt 0.38185598 0.0000000e+0
vt 0.38185598 1.00000000
vt 0.48021663 0.11204798
vt 0.48021663 0.88795202
vt 0.55180135 0.11204798
vt 0.55180135 0.88795202
vt 0.59604452 0.28962029
vt 0.59604452 0.71037971
vt 0.63735582 0.50000000
vt 0.66762924 0.28962029
vt 0.66762924 0.71037971
vt 0.70894054 0.28962029
vt 0.70894054 0.50000000
vt 0.70894054 0.71037971
vt 0.70894054 0.50000000
vt 0.71452508 0.11204798
vt 0.71452508 0.88795202
vt 0.72069041 0.0000000e+0
vt 0.72069041 1.00000000
vt 0.74186699 0.0000000e+0
vt 0.74186699 1.00000000
vt 0.74803232 0.11204798
vt 0.74803232 0.88795202
vt 0.75361686 0.28962029
vt 0.75361686 0.50000000
vt 0.75361686 0.71037971
vt 0.75361686 0.28962029
vt 0.75361686 0.50000000
vt 0.75361686 0.71037971
vt 0.75920140 0.11204798
vt 0.75920140 0.88795202
vt 0.76536673 0.0000000e+0
vt 0.76536673 1.00000000
vt 0.78654331 0.0000000e+0
vt 0.78654331 1.00000000
vt 0.79270864 0.11204798
vt 0.79270864 0.88795202
vt 0.79829318 0.28962029
vt 0.79829318 0.50000000
vt 0.79829318 0.71037971
vt 0.97545477 0.98480621
vt 0.97545477 0.98869371
vt 0.97545477 0.98479062
vt 0.97820361 0.98480621
vt 0.97820361 1.5383779e-2
vt 0.97820365 0.98479062
vt 0.97934226 0.98480621
vt 0.97934226 0.98869371
vt 0.98095250 0.98480621
vt 0.98095250 1.5383779e-2
vt 0.98370134 1.5383779e-2
vt 0.98370134 1.5399369e-2
vt 0.98370134 0.98479842
vt 0.98758884 1.5383779e-2
vt 0.98758884 0.98479842
vt 0.98758884 1.5383779e-2
vt 0.98758884 0.98479842
vt 0.99147634 1.5383779e-2
vt 0.99147634 0.98479842
vn -0.71562438 0.25324522 -0.65095976
vn -0.71140316 -0.27411908 0.64711998
vn -0.71562438 -0.25324522 -0.65095976
vn -0.71140316 0.27411908 0.64711998
vn 0.71562438 0.25324522 -0.65095976
vn 0.71140316 -0.27411908 0.64711998
vn 0.71562438 -0.25324522 -0.65095976
vn 0.71140316 0.27411908 0.64711998
vn -0.70322508 -0.51653707 0.48853244
vn -0.71973329 0.43463681 -0.54136387
vn 0.71973329 0.43463681 -0.54136387
vn 0.70322508 -0.51653707 0.48853244
vn -0.71973329 -0.43463681 -0.54136387
vn -0.70322508 0.51653707 0.48853244
vn 0.70322508 0.51653707 0.48853244
vn 0.71973329 -0.43463681 -0.54136387
vn -0.45239560 -0.85623595 0.24939573
vn -0.80601012 -0.24889974 -0.53702570
vn 0.80601012 -0.24889974 -0.53702570
vn 0.45239560 -0.85623595 0.24939573
vn -0.80601012 0.24889974 -0.53702570
vn -0.45239560 0.85623595 0.24939573
vn 0.45239560 0.85623595 0.24939573
vn 0.80601012 0.24889974 -0.53702570
vn -0.71376292 0.0000000e+0 -0.70038739
vn -0.71376292 7.3534090e-19 0.70038739
vn 0.71376292 0.0000000e+0 -0.70038739
vn 0.71376292 0.0000000e+0 0.70038739
vn -0.57735027 -0.57735027 -0.57735027
vn -0.57735027 -0.57735027 0.57735027
vn -0.57735027 0.57735027 -0.57735027
vn -0.57735027 0.57735027 0.57735027
vn 0.57735027 -0.57735027 -0.57735027
vn 0.57735027 -0.57735027 0.57735027
vn 0.57735027 0.57735027 -0.57735027
vn 0.57735027 0.57735027 0.57735027
g Cube1_Cube1_auv
usemtl Cube1_auv
s 1
f 1/21/1 9/19/9 2/24/2
f 1/21/1 26/29/26 25/23/25
f 1/52/1 27/39/27 5/38/5
f 2/26/2 6/41/6 26/27/26
f 2/26/2 9/30/9 6/41/6
f 2/24/2 26/29/26 1/21/1
f 3/54/3 16/45/16 7/40/7
f 3/22/3 26/29/26 4/25/4
f 3/54/3 27/39/27 25/53/25
f 4/25/4 14/20/14 3/22/3
f 4/28/4 26/27/26 8/43/8
f 5/38/5 11/44/11 1/52/1
f 5/5/5 27/4/27 6/2/6
f 6/2/6 11/9/11 5/5/5
f 6/2/6 27/4/27 28/1/28
f 7/6/7 16/10/16 8/3/8
f 7/40/7 27/39/27 3/54/3
f 8/43/8 14/31/14 4/28/4
f 8/43/8 26/27/26 28/42/28
f 8/3/8 27/4/27 7/6/7
f 9/19/9 1/21/1 10/17/10
f 9/30/9 20/34/20 12/36/12
f 10/50/10 1/52/1 11/44/11
f 10/17/10 18/13/18 9/19/9
f 11/9/11 6/2/6 12/7/12
f 11/44/11 18/48/18 10/50/10
f 12/36/12 6/41/6 9/30/9
f 12/7/12 20/11/20 11/9/11
f 13/18/13 3/22/3 14/20/14
f 13/51/13 16/45/16 3/54/3
f 13/51/13 21/49/21 16/45/16
f 14/31/14 8/43/8 15/37/15
f 14/20/14 21/14/21 13/18/13
f 15/8/15 8/3/8 16/10/16
f 15/37/15 23/35/23 14/31/14
f 16/10/16 23/12/23 15/8/15
f 17/15/17 9/19/9 18/13/18
f 17/32/17 20/34/20 9/30/9
f 18/48/18 11/44/11 19/46/19
f 18/32/18 20/34/20 17/32/17
f 19/13/19 11/9/11 20/11/20
f 19/34/19 20/34/20 18/32/18
f 21/14/21 14/20/14 22/16/22
f 22/33/22 14/31/14 23/35/23
f 22/33/22 23/35/23 21/33/21
f 23/12/23 16/10/16 24/14/24
f 24/47/24 16/45/16 21/49/21
f 24/35/24 21/33/21 23/35/23
f 25/23/25 26/29/26 3/22/3
f 25/53/25 27/39/27 1/52/1
f 28/42/28 26/27/26 6/41/6
f 28/1/28 27/4/27 8/3/8
f 29/62/29 33/56/33 30/61/30
f 30/64/30 31/57/31 29/59/29
f 30/61/30 33/56/33 34/55/34
f 30/64/30 36/63/36 32/60/32
f 31/69/31 33/65/33 29/68/29
f 31/57/31 36/63/36 35/58/35
f 32/60/32 31/57/31 30/64/30
f 32/60/32 36/63/36 31/57/31
f 33/72/33 36/71/36 34/70/34
f 34/66/34 36/63/36 30/64/30
f 35/67/35 33/65/33 31/69/31
f 35/73/35 36/71/36 33/72/33
