# Exported from Wings 3D 1.5.4
mtllib fence_body.mtl
o Cube1
#16 vertices, 24 faces
v -0.30000000 0.0000000e+0 1.54745834
v -0.30000000 0.0000000e+0 2.94745834
v -0.30000000 8.00000000 1.54745834
v -0.30000000 8.00000000 2.94745834
v 0.30000000 0.0000000e+0 1.54745834
v 0.30000000 0.0000000e+0 2.94745834
v 0.30000000 8.00000000 1.54745834
v 0.30000000 8.00000000 2.94745834
v -0.30000000 0.0000000e+0 3.39740101
v -0.30000000 0.0000000e+0 4.79740101
v -0.30000000 8.00000000 3.39740101
v -0.30000000 8.00000000 4.79740101
v 0.30000000 0.0000000e+0 3.39740101
v 0.30000000 0.0000000e+0 4.79740101
v 0.30000000 8.00000000 3.39740101
v 0.30000000 8.00000000 4.79740101
vt 0.0000000e+0 0.85106383
vt 4.8572257e-17 1.00000000
vt 1.7208457e-15 1.6653345e-16
vt 6.3829787e-2 0.85106383
vt 6.3829787e-2 0.85106383
vt 6.3829787e-2 1.00000000
vt 6.3829787e-2 0.0000000e+0
vt 6.3829787e-2 0.85106383
vt 6.3829787e-2 1.6653345e-16
vt 0.12765957 0.85106383
vt 0.12765957 0.0000000e+0
vt 0.12765957 0.85106383
vt 0.27659574 0.0000000e+0
vt 0.27659574 2.2204460e-16
vt 0.27659574 0.85106383
vt 0.27659574 0.85106383
vt 0.34042553 0.0000000e+0
vt 0.34042553 2.2204460e-16
vt 0.34042553 0.85106383
vt 0.34042553 0.85106383
vt 0.40425532 0.0000000e+0
vt 0.40425532 0.0000000e+0
vt 0.40425532 0.85106383
vt 0.40425532 0.85106383
vt 0.55319149 0.0000000e+0
vt 0.55319149 0.85106383
vt 0.55319149 0.0000000e+0
vt 0.55319149 0.85106383
vt 0.70212766 0.85106383
vt 0.70212766 0.0000000e+0
vt 0.70212766 0.85106383
vt 0.70212766 0.0000000e+0
vt 0.85106383 0.85106383
vt 0.85106383 0.0000000e+0
vt 0.85106383 2.7755576e-17
vt 0.85106383 0.14893617
vt 0.85106383 0.14893617
vt 0.85106383 0.29787234
vt 0.91489362 0.0000000e+0
vt 0.91489362 0.14893617
vt 0.91489362 0.0000000e+0
vt 0.91489362 0.14893617
vt 0.91489362 0.14893617
vt 0.91489362 0.29787234
vt 0.97872340 5.5511151e-17
vt 0.97872340 0.14893617
vn -0.57735027 -0.57735027 -0.57735027
vn -0.57735027 -0.57735027 0.57735027
vn -0.57735027 0.57735027 -0.57735027
vn -0.57735027 0.57735027 0.57735027
vn 0.57735027 -0.57735027 -0.57735027
vn 0.57735027 -0.57735027 0.57735027
vn 0.57735027 0.57735027 -0.57735027
vn 0.57735027 0.57735027 0.57735027
vn -0.57735027 -0.57735027 -0.57735027
vn -0.57735027 -0.57735027 0.57735027
vn -0.57735027 0.57735027 -0.57735027
vn -0.57735027 0.57735027 0.57735027
vn 0.57735027 -0.57735027 -0.57735027
vn 0.57735027 -0.57735027 0.57735027
vn 0.57735027 0.57735027 -0.57735027
vn 0.57735027 0.57735027 0.57735027
g Cube1_Cube1_auv
usemtl Cube1_auv
s 1
f 1/44/1 5/38/5 2/43/2
f 2/25/2 3/24/3 1/22/1
f 2/43/2 5/38/5 6/37/6
f 2/3/2 8/4/8 4/1/4
f 3/19/3 5/14/5 1/17/1
f 3/36/3 8/41/8 7/42/7
f 4/26/4 3/24/3 2/25/2
f 4/35/4 8/41/8 3/36/3
f 5/30/5 8/28/8 6/27/6
f 6/7/6 8/4/8 2/3/2
f 7/16/7 5/14/5 3/19/3
f 7/31/7 8/28/8 5/30/5
f 9/6/9 13/2/13 10/5/10
f 10/13/10 11/12/11 9/11/9
f 10/5/10 13/2/13 14/1/14
f 10/9/10 16/10/16 12/8/12
f 11/23/11 13/18/13 9/21/9
f 11/40/11 16/45/16 15/46/15
f 12/15/12 11/12/11 10/13/10
f 12/39/12 16/45/16 11/40/11
f 13/34/13 16/29/16 14/32/14
f 14/11/14 16/10/16 10/9/10
f 15/20/15 13/18/13 11/23/11
f 15/33/15 16/29/16 13/34/13
