# Exported from Wings 3D 1.5.4
mtllib wood.mtl
o Cylinder1
#16 vertices, 28 faces
v 5.00000000 10.00000000 0.0000000e+0
v 3.53553391 10.00000000 3.53553391
v 3.0616170e-16 10.00000000 5.00000000
v -3.53553391 10.00000000 3.53553391
v -5.00000000 10.00000000 6.1232340e-16
v -3.53553391 10.00000000 -3.53553391
v -9.1848510e-16 10.00000000 -5.00000000
v 3.53553391 10.00000000 -3.53553391
v 5.00000000 0.0000000e+0 0.0000000e+0
v 3.53553391 0.0000000e+0 3.53553391
v 3.0616170e-16 0.0000000e+0 5.00000000
v -3.53553391 0.0000000e+0 3.53553391
v -5.00000000 0.0000000e+0 6.1232340e-16
v -3.53553391 0.0000000e+0 -3.53553391
v -9.1848510e-16 0.0000000e+0 -5.00000000
v 3.53553391 0.0000000e+0 -3.53553391
vt 0.0000000e+0 0.50037943
vt 0.0000000e+0 0.99960606
vt 0.12499097 0.50037782
vt 0.12499097 0.99960767
vt 0.24999851 0.50036030
vt 0.24999851 0.99962519
vt 0.37502914 0.50035556
vt 0.37502914 0.99962993
vt 0.50000000 0.50036672
vt 0.50000000 0.99961877
vt 0.50192763 0.25049481
vt 0.50234673 0.25020593
vt 0.57482885 7.4495692e-2
vt 0.57482885 0.42649394
vt 0.57515228 7.4437774e-2
vt 0.57515228 0.42597408
vt 0.62497086 0.50035556
vt 0.62497086 0.99962993
vt 0.75000149 0.50036030
vt 0.75000149 0.99962519
vt 0.75082798 1.5944692e-3
vt 0.75082798 0.49939516
vt 0.75092044 1.6322211e-3
vt 0.75092044 0.49877963
vt 0.87500903 0.50037782
vt 0.87500903 0.99960767
vt 0.92668859 7.4437774e-2
vt 0.92668859 0.42597408
vt 0.92682710 7.4495692e-2
vt 0.92682710 0.42649394
vt 0.99949414 0.25020593
vt 0.99972832 0.25049481
vt 1.00000000 0.50037943
vt 1.00000000 0.99960606
vn 0.87946522 0.47596315 0.0000000e+0
vn 0.62187582 0.47596315 0.62187582
vn 3.1510161e-17 0.85145490 0.52442784
vn -0.54898507 0.63026247 0.54898507
vn -0.87946522 0.47596315 1.8494884e-16
vn -0.62187582 0.47596315 -0.62187582
vn 0.0000000e+0 0.85145490 -0.52442784
vn 0.54898507 0.63026247 -0.54898507
vn 0.77638213 -0.63026247 0.0000000e+0
vn 0.47984149 -0.73450956 0.47984149
vn 1.3049755e-16 -0.26120387 0.96528366
vn -0.37082648 -0.85145490 0.37082648
vn -0.77638213 -0.63026247 1.2828418e-16
vn -0.47984149 -0.73450956 -0.47984149
vn -1.7399673e-16 -0.26120387 -0.96528366
vn 0.37082648 -0.85145490 -0.37082648
g Cylinder1_Cylinder1_auv
usemtl Cylinder1_auv
s 1
f 1/31/1 8/28/8 2/27/2
f 1/26/1 9/25/9 8/34/8
f 2/27/2 8/28/8 3/23/3
f 2/20/2 9/25/9 1/26/1
f 2/20/2 11/17/11 10/19/10
f 3/23/3 7/24/7 4/15/4
f 3/18/3 11/17/11 2/20/2
f 4/15/4 6/16/6 5/12/5
f 4/10/4 11/17/11 3/18/3
f 4/10/4 13/7/13 12/9/12
f 5/8/5 13/7/13 4/10/4
f 6/16/6 4/15/4 7/24/7
f 6/6/6 13/7/13 5/8/5
f 6/6/6 15/3/15 14/5/14
f 7/24/7 3/23/3 8/28/8
f 7/4/7 15/3/15 6/6/6
f 8/34/8 9/25/9 16/33/16
f 8/2/8 15/3/15 7/4/7
f 9/11/9 13/32/13 16/14/16
f 10/19/10 9/25/9 2/20/2
f 10/13/10 12/29/12 9/11/9
f 11/21/11 12/29/12 10/13/10
f 12/9/12 11/17/11 4/10/4
f 13/32/13 9/11/9 12/29/12
f 14/5/14 13/7/13 6/6/6
f 14/30/14 16/14/16 13/32/13
f 15/22/15 16/14/16 14/30/14
f 16/1/16 15/3/15 8/2/8
